{
    "fields": [
        {
            "name": "name",
            "type": "string"
        },
        {
            "name": "image_url",
            "type": "file"
        },
        {
            "name": "match",
            "type": "number"
        },
        {
            "name": "win",
            "type": "number"
        },
        {
            "name": "draw",
            "type": "number"
        },
        {
            "name": "lose",
            "type": "number"
        },
        {
            "name": "gf",
            "type": "number"
        },
        {
            "name": "ga",
            "type": "number"
        },
        {
            "name": "point",
            "type": "number"
        },
        {
            "name": "league_id",
            "type": "integer#unsigned"
        }
    ],
    "foreign_keys": [
        {
            "column": "league_id",
            "references": "id",
            "on": "leagues",
            "onDelete": "cascade"
        }
    ],
    "relationships": [
        {
            "name": "league",
            "type": "belongsTo",
            "class": "App\\League"
        }
    ],
    "validations": [
        {
            "field": "name",
            "rules": "required"
        },
        {
            "field": "image_url",
            "rules": "required"
        },
        {
            "field": "match",
            "rules": "required"
        },
        {
            "field": "win",
            "rules": "required"
        },
        {
            "field": "draw",
            "rules": "required"
        },
        {
            "field": "lose",
            "rules": "required"
        },
        {
            "field": "gf",
            "rules": "required"
        },
        {
            "field": "ga",
            "rules": "required"
        },
        {
            "field": "point",
            "rules": "required"
        }
    ]
}
