{
    "fields": [
        {
            "name": "name",
            "type": "string"
        }
    ],
    "validations": [
        {
            "field": "name",
            "rules": "required"
        }
    ]
}
