{
    "fields": [
        {
            "name": "probability",
            "type": "number"
        },
        {
            "name": "value",
            "type": "string"
        },
        {
            "name": "win",
            "type": "boolean"
        },
        {
            "name": "result_text",
            "type": "string"
        },
        {
            "name": "item_name",
            "type": "string"
        },
        {
            "name": "item_img",
            "type": "file"
        }
        

    ],
    "validations": [
        {
            "field": "probability",
            "rules": "required"
        },
        {
            "field": "value",
            "rules": "required"
        },
        {
            "field": "result_text",
            "rules": "required"
        },
        {
            "field": "item_name",
            "rules": "required"
        },
        {
            "field": "item_img",
            "rules": "required"
        }
    ]
}
